{
  "error": [
    {
      "mathjs": "BigNumber",
      "value": "0.0145301038049574181954585784523"
    }
  ],
  "epocas": 9316,
  "perceptron": {
    "pesos": [
      [
        "-0.0602808813219332593076827904678"
      ],
      [
        "0.222170209469282817868950297854"
      ]
    ],
    "b": [
      "-0.0416535810846575225722649054547"
    ]
  },
  "normalizador": 35
}